{
  "$schema": "../../node_modules/ng-packagr/ng-package.schema.json",
  "dest": "../../dist/libs/core",
  "lib": {
    "entryFile": "public-api.ts"
  },
  "assets": ["theme.scss","**/*.theme.scss"]
}
